W9: Web Scraping
…
dat <- read_html(url) %>% 
    html_element(".wikitable") %>% 
    html_table()  #making data frame

Cleaning data

#I need to take all columns of years (2010, 2011,...) and create just one variable Year that has assigned the corresponding value of percentage of women in the parliament that year
longer_data <- pivot_longer(dat, cols = c("2010", "2011", "2012", "2013", "2014", "2015", "2016", "2017"), names_to = "Year", values_to = "Percentage")

#we can see the change, data frame is much more tidy and now we can work with it
print(longer_data)

## # A tibble: 312 x 3
##    Country Year  Percentage
##    <chr>   <chr>      <int>
##  1 Albania 2010          16
##  2 Albania 2011          16
##  3 Albania 2012          16
##  4 Albania 2013          18
##  5 Albania 2014          20
##  6 Albania 2015          NA
##  7 Albania 2016          NA
##  8 Albania 2017          28
##  9 Austria 2010          28
## 10 Austria 2011          28
## # ... with 302 more rows
…
